[
    {
        "order": 1,
        "id": "fpp",
        "name": "FPP",
        "fullName": "Federal Partners Portal (FPP)",
        "client": "Federal Student Aid (FSA)",
        "thumbnail": "thumb1.png",
        "url": "https://fp.ed.gov/fp/",
        "tags": ["java", "sql", "teamsite"],
        "images": ["/static/images/portfolio/fpp/fpp1.png", "/static/images/portfolio/fpp/fpp2.png"],
        "description": "<p>The FPP application provides loan information to Lenders, Servicers, Trustees, Schools and other partners of Federal Student AID.</p><p>As part of FPP's operations and maintenance team, my responsibilities included fixing defects and implementing new functionality.</p>",
        "isExternal": false
    },
    {
        "order": 2,
        "id": "ifap",
        "name": "IFAP",
        "fullName": "Information for Financial Aid Professionals (IFAP)",
        "client": "Federal Student Aid (FSA)",
        "thumbnail": "thumb2.png",
        "url": "https://ifap.ed.gov/ifap/",
        "tags": ["java", "sql", "teamsite"],
        "images": ["/static/images/portfolio/ifap/ifap1.png", "/static/images/portfolio/ifap/ifap2.png"],
        "description": "<p>The IFAP application provides resources, and information related to Title IV federal student aid for use by the financial aid community.</p><p>As part of IFAP's operations and maintenance team, my responsibilities included fixing defects and implementing new functionality.</p>",
        "isExternal": false
    },
    {
        "order": 3,
        "id": "toolkit",
        "name": "Toolkit",
        "fullName": "Financial Aid Toolkit (Toolkit)",
        "client": "Federal Student Aid (FSA)",
        "thumbnail": "thumb3.png",
        "url": "https://financialaidtoolkit.ed.gov/tk/",
        "tags": ["java", "sql", "teamsite", "css", "html", "js", "perl"],
        "images": ["/static/images/portfolio/toolkit/toolkit1.png", "/static/images/portfolio/toolkit/toolkit2.png", "/static/images/portfolio/toolkit/toolkit3.png"],
        "description": "<p>The Toolkit application is a full re-design of the FSA4Counselors application, and provides information and resources to school counselors and mentors.</p><p>I was responsible for implementing the backend of the application, and the integration and configuration of TeamSite for content management. After going live, my responsibilities included fixing defects and implementing new functionality.</p>",
        "isExternal": false
    },
    {
        "order": 4,
        "id": "amtelco",
        "name": "Amtelco Integration",
        "fullName": "Florida Health Care Plans (FHCP) AMTELCO Integration",
        "client": "Florida Health Care Plans (FHCP)",
        "thumbnail": "thumb4.png",
        "tags": ["sql", "vb.net"],
        "description": "<p>To comply with the Health Insurance Portability and Accountability Act (HIPAA), FHCP partnered with AMTELCO to integrate AMTELCO's messaging system into their call center application, that was used to communicate with doctors and other health providers. I was responsible for modifying the existing call center application to use AMTELCO's web services to register users, send messages to user's phones, and provide status of sent messages back to the application.</p>",
        "isExternal": false
    },
    {
        "order": 5,
        "id": "fhcp",
        "name": "FHCP O & M",
        "fullName": "Florida Health Care Plans (FHCP) Operations & Maintenance",
        "client": "Florida Health Care Plans (FHCP)",
        "thumbnail": "thumb5.jpg",
        "url": "https://www.fhcp.com/",
        "tags": ["sql", "vb.net", "c#.net", "struts"],
        "images": ["/static/images/portfolio/fhcp/fhcp1.png", "/static/images/portfolio/fhcp/fhcp2.png", "/static/images/portfolio/fhcp/fhcp3.png"],
        "description": "<p>As part of FHCP's operations and maintenance team, I was responsible for maintaining the Employee Portal, Member Portal, Provider Access Inquiry, and Provider Portal applications. My responsibilities included fixing defects and implementing new functionality.</p>",
        "isExternal": false
    },
    {
        "order": 6,
        "id": "aims",
        "name": "AIMS",
        "fullName": "Access and Identity Management System (AIMS)",
        "client": "Federal Student Aid (FSA)",
        "thumbnail": "thumb6.jpg",
        "tags": ["java", "sql", "jsf", "ldap", "struts"],
        "description": "<p>AIMS is an authentication and an authorization system for Fedederal Student Aid's internal applications. This system consists of several applications that provide registration, account management, reporting, and administration functionalities. As of July 2016, FSA ID has 70,000+ registered users.</p><p>My responsibilities included fixing defects, implementing new functionality for existing applications and implementing supporting applications.</p>",
        "isExternal": false
    },
    {
        "order": 7,
        "id": "fsaid",
        "name": "FSAID",
        "fullName": "Federal Student Aid (FSA) ID",
        "client": "Federal Student Aid (FSA)",
        "thumbnail": "thumb7.jpg",
        "url": "https://fsaid.ed.gov",
        "tags": ["java", "sql", "js", "jsf", "ldap"],
        "images": ["/static/images/portfolio/fsaid/fsaid1.png", "/static/images/portfolio/fsaid/fsaid2.png"],
        "description": "<p>FSA ID is an authentication system for several Fedederal Student Aid's applications including FAFSA, Student Aid, and Student Loans. It has replaced the PIN system that was used previously. This application consists of registration, account management, authentication and administration components. As of July 2019, FSA ID has 60+ million registered users.</p><p>I was responsible for implementing the back end of the application, and ocassional implementation of front end features.</p>",
        "isExternal": false
    },
    {
        "order": 8,
        "id": "cdts",
        "name": "CDTS",
        "fullName": "Cross Domain Transfer System",
        "thumbnail": "thumb1.png",
        "tags": ["java", "sql", "angular", "nifi", "spring", "saltstack", "flyway"],
        "description": "<p>The Cross Domain Transfer System allows users to securely upload and send files within multiple secure zones. The CDTS system supports transfer through email, FTP, web, Nifi and REST API. At each zone, the files are processed through configurable checkpoints, such as virus scanning and data transfer guards, before being sent to the recepient.</p><p>My responsibilities included fixing defects and implementing new features.</p>",
        "isExternal": false
    },
    {
        "order": 9,
        "id": "benefits",
        "name": "Benefits.gov",
        "fullName": "Benefits.gov",
        "client": "Department of Labor",
        "thumbnail": "thumb2.png",
        "url": "https://www.benefits.gov/",
        "tags": ["java", "python", "spring"],
        "images": ["/static/images/portfolio/benefits/benefits1.png", "/static/images/portfolio/benefits/benefits2.png", "/static/images/portfolio/benefits/benefits3.png"],
        "description": "<p>Benefits.gov is an online resource to help people find federal benefits.</p><p>My responsibilities included maintenance of the backend Java application and Drools engine, and implementation of backup scripts for MySQL databases in Azure.</p>",
        "isExternal": false
    },
    {
        "order": 10,
        "name": "Key Encryption",
        "thumbnail": "thumb3.png",
        "url": "http://timurasanov.com/key-encryption/",
        "tags": ["java"],
        "isExternal": true
    },
    {
        "order": 11,
        "id": "fafsa",
        "name": "FAFSA",
        "fullName": "Free Application for Federal Student Aid (FAFSA)",
        "client": "Federal Student Aid (FSA)",
        "thumbnail": "thumb4.png",
        "url": "https://fafsa.ed.gov/",
        "tags": ["java", "spring", "typescript", "angular"],
        "images": ["/static/images/portfolio/fafsa/fafsa1.png", "/static/images/portfolio/fafsa/fafsa2.png"],
        "description": "<p>FAFSA allows all students in the United States to apply for federal aid for their college tuition. Millions of students and their parents fill out the application every year. The FAFSA website has been re-designed into a single page application in the summer of 2018.</p><p>I was responsible for implementing security and data authorization features for the REST APIs of the new application. I have also worked extensively on fixing bugs and implementing new features on the front end and back end during the re-design development.</p>",
        "isExternal": false
    },
    {
        "order": 12,
        "name": "MZ History",
        "thumbnail": "thumb5.jpg",
        "url": "http://timurasanov.com/mz-history/",
        "tags": ["react"],
        "isExternal": true
    },
    {
        "order": 13,
        "id": "fsc",
        "name": "FAFSA School Search",
        "fullName": "Free Application for Federal Student Aid (FAFSA) School Code Search",
        "client": "Federal Student Aid (FSA)",
        "thumbnail": "thumb6.jpg",
        "url": "https://fafsa.ed.gov/spa/fsc/",
        "tags": ["typescript", "angular", "nodejs"],
        "images": ["/static/images/portfolio/fsc/fsc1.png", "/static/images/portfolio/fsc/fsc2.png", "/static/images/portfolio/fsc/fsc3.png"],
        "description": "<p>FAFSA's Federal School Code Search allows students and parent to search for colleges to be included on the FAFSA form. The website also provides detailed college information, like tuition and fee amounts and graduation rates, and allows comparisons of that information for up to 10 colleges at a time.</p><p>I was responsible for implementing the frontend of the application, and for implementing an Angular package of shared functionality and resources that is used by this website and the FAFSA website.</p>",
        "isExternal": false
    },
    {
        "order": 14,
        "id": "fsaid_api",
        "name": "FSAID API",
        "fullName": "Federal Student Aid (FSA) ID API",
        "client": "Federal Student Aid (FSA)",
        "thumbnail": "thumb7.jpg",
        "tags": ["java", "spring", "redis", "jwt"],
        "description": "<p>FSA ID is an authentication system for several Fedederal Student Aid's applications including FAFSA, Student Aid, and Student Loans. It has replaced the PIN system that was used previously. This application consists of registration, account management, authentication and administration components. As of July 2019, FSA ID has 60+ million registered users.</p><p>The FSAID API provides a REST API for all functionality of the FSAID website.</p><p>I was responsible for implementing the REST API, the API's security and Redis session management.</p>",
        "isExternal": false
    },
    {
        "order": 15,
        "id": "fsaid_fido",
        "name": "FSAID FIDO",
        "fullName": "Federal Student Aid (FSA) ID FIDO UAF",
        "client": "Federal Student Aid (FSA)",
        "thumbnail": "thumb1.png",
        "tags": ["java", "spring", "react", "swift", "fido"],
        "description": "<p>FSA ID is an authentication system for several Fedederal Student Aid's applications including FAFSA, Student Aid, and Student Loans. It has replaced the PIN system that was used previously. This application consists of registration, account management, authentication and administration components. As of July 2019, FSA ID has 60+ million registered users.</p><p>The FSAID FIDO project is a prototype IOS application that integrates the FSAID REST API's with FIDO's Universal Authentication Framework for biometric authentication in the FSAID system.</p><p>I was responsible for implementing the IOS application and a lightweight FIDO UAF backend server.</p>",
        "isExternal": false
    },
    {
        "order": 16,
        "id": "fsaid_admin",
        "name": "FSAID Admin WS",
        "fullName": "Federal Student Aid (FSA) ID Admin Web Services",
        "client": "Federal Student Aid (FSA)",
        "thumbnail": "thumb2.png",
        "tags": ["java"],
        "description": "<p>FSA ID is an authentication system for several Fedederal Student Aid's applications including FAFSA, Student Aid, and Student Loans. It has replaced the PIN system that was used previously. This application consists of registration, account management, authentication and administration components. As of July 2019, FSA ID has 60+ million registered users.</p><p>The FSAID Admin Web Services provides JAX-WS web services for functionality of the FSAID Administration website.</p><p>I was responsible for implementing all of the web services.</p>",
        "isExternal": false
    }
]
